Configuring zlib-0.6.2...
Preprocessing library for zlib-0.6.2..
Building library for zlib-0.6.2..
[1 of 5] Compiling Codec.Compression.Zlib.Stream ( .stack-work/dist/x86_64-linux/Cabal-2.4.0.1/build/Codec/Compression/Zlib/Stream.hs, .stack-work/dist/x86_64-linux/Cabal-2.4.0.1/build/Codec/Compression/Zlib/Stream.o )
[2 of 5] Compiling Codec.Compression.Zlib.Internal ( Codec/Compression/Zlib/Internal.hs, .stack-work/dist/x86_64-linux/Cabal-2.4.0.1/build/Codec/Compression/Zlib/Internal.o )
[3 of 5] Compiling Codec.Compression.Zlib.Raw ( Codec/Compression/Zlib/Raw.hs, .stack-work/dist/x86_64-linux/Cabal-2.4.0.1/build/Codec/Compression/Zlib/Raw.o )
[4 of 5] Compiling Codec.Compression.Zlib ( Codec/Compression/Zlib.hs, .stack-work/dist/x86_64-linux/Cabal-2.4.0.1/build/Codec/Compression/Zlib.o )
[5 of 5] Compiling Codec.Compression.GZip ( Codec/Compression/GZip.hs, .stack-work/dist/x86_64-linux/Cabal-2.4.0.1/build/Codec/Compression/GZip.o )
Installing library in /home/mattr/.stack/snapshots/x86_64-linux/nightly-2019-02-09/8.6.3/lib/x86_64-linux-ghc-8.6.3/zlib-0.6.2-BdOecmQ0rL1HOiGypdSgxY
Registering library for zlib-0.6.2..
